{
    "MTitleBoxHeight":   "7mm",
    "MTitleTopMargin":   "0mm",
    "MTitleLeftMargin":  "0mm",
    "MTitleRightMargin": "0mm",
    "MTitleBottomMargin":"1mm",

    "MonthLeftMargin":   "0mm",
    "MonthRightMargin":  "0mm",
    "MonthBottomMargin": "0mm",

    "NameCellWidth":     "auto",
    "NameCellHeight":    "6mm",
    "NameCellTopMargin": "1mm",
    "NameCellBottomMargin": "1mm",
    
    "DayCellWidth":      "auto",
    "DayCellHeight":     "auto",

    "NumberDX":          "0.3",
    "NumberDY":          "0.3",

    "DayCellDX":         "0.5mm",
    "DayCellDY":         "0.5mm",

    "DayCellLeftMargin":   "1mm",
    "DayCellRightMargin":  "1mm",
    "DayCellBottomMargin": "1mm",

    "InterMonthVSpace":   "7mm"
}
