{
    "WholeBoxColor": "ffffff",
    "WholeBoxLineColor": "ffffff",

    "TitleBoxColor": "ffffff",
    "TitleBoxLineColor": "ffffff",
    
    "MonthBoxColor": "6883bc",
    "MonthBoxLineColor": "ffffff",

    "NameCellFrameColor": null,
    "NameCellSundayColor": "79a7d3",
    "NameCellMondayColor": "79a7d3",
    "NameCellTuesdayColor": "79a7d3",
    "NameCellWednesdayColor": "79a7d3",
    "NameCellThursdayColor": "79a7d3",
    "NameCellFridayColor": "79a7d3",
    "NameCellSaturdayColor": "79a7d3",

    "DayCellFrameColor": null,
    "DayCellEmptyColor": "6883bc",
    "DayCellMondayColor": "ffffff",
    "DayCellTuesdayColor": "ffffff",
    "DayCellWednesdayColor": "ffffff",
    "DayCellThursdayColor": "ffffff",
    "DayCellFridayColor": "ffffff",
    "DayCellSaturdayColor": "ffeffe",
    "DayCellSundayColor": "ffeffe",

    "TextNameMondayColor": "000000",
    "TextNameTuesdayColor": "000000",
    "TextNameWednesdayColor": "000000",
    "TextNameThursdayColor": "000000",
    "TextNameFridayColor": "000000",
    "TextNameSaturdayColor": "000000",
    "TextNameSundayColor": "000000",
    
    "TextNumberMondayColor":"79a7d3",
    "TextNumberTuesdayColor": "79a7d3",
    "TextNumberWednesdayColor": "79a7d3",
    "TextNumberThursdayColor": "79a7d3",
    "TextNumberFridayColor": "79a7d3",
    "TextNumberSaturdayColor": "8a307f",
    "TextNumberSundayColor": "8a307f",

    "FontPackage": "lmodern",
    "FontFamily":  "sans",

    "TitleBoxFontCmd": "\\bfseries\\LARGE",
    "NameCellFontCmd": "",
    "TextNumberFontCmd": "\\small",

    "MonthBoxRoundedCorner": "0mm",
    "WholeBoxRoundedCorner": "0mm",
    "TitleBoxRoundedCorner": "0mm",
    "NameCellRoundedCorner": "1.5mm",
    "DayCellRoundedCorner":  "1.5mm"
}
